{
  "movies": [
    {
      "id": "1",
      "title": "Drishyam",
      "releaseDate": "2018",
      "posterPath": "https://upload.wikimedia.org/wikipedia/en/b/b6/Lagaan.jpg"
    },
    {
      "id": "2",
      "title": "Hera pheri",
      "releaseDate": "2004",
      "posterPath": "https://m.media-amazon.com/images/M/MV5BNDExMTBlZTYtZWMzYi00NmEwLWEzZGYtOTA1MDhmNTc0ODZkXkEyXkFqcGdeQXVyODE5NzE3OTE@._V1_.jpg"
    },
    {
      "id": "3",
      "title": "Lagaan",
      "releaseDate": "2004",
      "posterPath": "https://m.media-amazon.com/images/M/MV5BNmYxZGJlNmQtMWY3OS00Njc0LThjODgtOWEwMWU4NTUxMDExXkEyXkFqcGdeQXVyNDAzNDk0MTQ@._V1_.jpg"
    },
    {
      "id": "4",
      "title": "Welcome",
      "releaseDate": "2008",
      "posterPath": "https://resizing.flixster.com/7GH5deqzDou4GzSE0eiSI1qyjmw=/300x300/v2/https://flxt.tmsimg.com/assets/p176589_v_v10_ad.jpg"
    }
  ],
  "favourites": [
    {
      "id": "3",
      "title": "Lagaan",
      "releaseDate": "2004",
      "posterPath": "https://m.media-amazon.com/images/M/MV5BNmYxZGJlNmQtMWY3OS00Njc0LThjODgtOWEwMWU4NTUxMDExXkEyXkFqcGdeQXVyNDAzNDk0MTQ@._V1_.jpg"
    }
  ]
}